# Blender v2.62 (sub 0) OBJ File: ''
# www.blender.org
mtllib untitled.mtl
o Cylinder
v 0.000000 3.000000 -1.500000
v 0.292636 3.000000 -1.471178
v 0.574025 3.000000 -1.385819
v 0.833355 3.000000 -1.247204
v 1.060660 3.000000 -1.060660
v 1.247204 3.000000 -0.833355
v 1.385819 3.000000 -0.574025
v 1.471178 3.000000 -0.292636
v 1.500000 3.000000 -0.000000
v 1.471178 3.000000 0.292635
v 1.385819 3.000000 0.574025
v 1.247205 3.000000 0.833355
v 1.060660 3.000000 1.060660
v 0.833355 3.000000 1.247205
v 0.574025 3.000000 1.385819
v 0.292635 3.000000 1.471178
v -0.000000 3.000000 1.500000
v -0.292636 3.000000 1.471178
v -0.574026 3.000000 1.385819
v -0.833356 3.000000 1.247204
v -1.060661 3.000000 1.060659
v -1.247205 3.000000 0.833354
v -1.385820 3.000000 0.574024
v -1.471178 3.000000 0.292634
v -1.500000 3.000000 -0.000001
v -1.471178 3.000000 -0.292637
v -1.385819 3.000000 -0.574027
v -1.247203 3.000000 -0.833357
v -1.060659 3.000000 -1.060662
v -0.833354 3.000000 -1.247206
v -0.574023 3.000000 -1.385820
v -0.292633 3.000000 -1.471178
v 0.000000 5.000000 0.000000
v 0.000000 3.000000 0.000000
v 0.000000 0.000000 -0.800000
v 0.156072 0.000000 -0.784628
v 0.306147 0.000000 -0.739104
v 0.444456 0.000000 -0.665176
v 0.565685 0.000000 -0.565685
v 0.665176 0.000000 -0.444456
v 0.739104 0.000000 -0.306147
v 0.784628 0.000000 -0.156072
v 0.800000 0.000000 -0.000000
v 0.784628 0.000000 0.156072
v 0.739104 0.000000 0.306147
v 0.665176 0.000000 0.444456
v 0.565685 0.000000 0.565685
v 0.444456 0.000000 0.665176
v 0.306147 0.000000 0.739104
v 0.156072 0.000000 0.784628
v -0.000000 0.000000 0.800000
v -0.156073 0.000000 0.784628
v -0.306147 0.000000 0.739103
v -0.444457 0.000000 0.665175
v -0.565686 0.000000 0.565685
v -0.665176 0.000000 0.444456
v -0.739104 0.000000 0.306146
v -0.784628 0.000000 0.156072
v -0.800000 0.000000 -0.000001
v -0.784628 0.000000 -0.156073
v -0.739103 0.000000 -0.306148
v -0.665175 0.000000 -0.444457
v -0.565685 0.000000 -0.565686
v -0.444455 0.000000 -0.665176
v -0.306146 0.000000 -0.739104
v -0.156071 0.000000 -0.784629
v 0.000001 1.000000 -0.800000
v 0.156074 1.000000 -0.784628
v 0.306148 1.000000 -0.739103
v 0.444457 1.000000 -0.665175
v 0.565687 1.000000 -0.565684
v 0.665177 1.000000 -0.444455
v 0.739104 1.000000 -0.306145
v 0.784629 1.000000 -0.156071
v 0.800000 1.000000 0.000002
v 0.784628 1.000000 0.156074
v 0.739103 1.000000 0.306148
v 0.665175 1.000000 0.444457
v 0.565685 1.000000 0.565686
v 0.444456 1.000000 0.665176
v 0.306147 1.000000 0.739104
v 0.156073 1.000000 0.784628
v 0.000001 1.000000 0.800000
v -0.156071 1.000000 0.784628
v -0.306145 1.000000 0.739104
v -0.444455 1.000000 0.665177
v -0.565684 1.000000 0.565687
v -0.665174 1.000000 0.444458
v -0.739103 1.000000 0.306149
v -0.784628 1.000000 0.156075
v -0.800000 1.000000 0.000003
v -0.784629 1.000000 -0.156069
v -0.739105 1.000000 -0.306143
v -0.665178 1.000000 -0.444453
v -0.565689 1.000000 -0.565682
v -0.444460 1.000000 -0.665173
v -0.306152 1.000000 -0.739102
v -0.156078 1.000000 -0.784627
v 0.000000 0.000000 0.000000
v 0.000000 1.000000 0.000000
v 0.000000 2.000000 -2.000000
v 0.390181 2.000000 -1.961571
v 0.765367 2.000000 -1.847759
v 1.111140 2.000000 -1.662939
v 1.414214 2.000000 -1.414214
v 1.662939 2.000000 -1.111140
v 1.847759 2.000000 -0.765367
v 1.961571 2.000000 -0.390181
v 2.000000 2.000000 -0.000000
v 1.961571 2.000000 0.390180
v 1.847759 2.000000 0.765367
v 1.662939 2.000000 1.111140
v 1.414214 2.000000 1.414214
v 1.111140 2.000000 1.662939
v 0.765367 2.000000 1.847759
v 0.390180 2.000000 1.961571
v -0.000001 2.000000 2.000000
v -0.390181 2.000000 1.961570
v -0.765368 2.000000 1.847759
v -1.111141 2.000000 1.662939
v -1.414214 2.000000 1.414213
v -1.662940 2.000000 1.111139
v -1.847760 2.000000 0.765365
v -1.961571 2.000000 0.390179
v -2.000000 2.000000 -0.000002
v -1.961570 2.000000 -0.390183
v -1.847758 2.000000 -0.765369
v -1.662938 2.000000 -1.111143
v -1.414212 2.000000 -1.414215
v -1.111138 2.000000 -1.662941
v -0.765364 2.000000 -1.847760
v -0.390178 2.000000 -1.961571
v 0.000000 4.000000 0.000000
v 0.000000 2.000000 0.000000
v 0.000000 1.000000 -2.500000
v 0.487726 1.000000 -2.451963
v 0.956709 1.000000 -2.309699
v 1.388926 1.000000 -2.078674
v 1.767767 1.000000 -1.767767
v 2.078674 1.000000 -1.388925
v 2.309699 1.000000 -0.956709
v 2.451963 1.000000 -0.487726
v 2.500000 1.000000 -0.000000
v 2.451963 1.000000 0.487725
v 2.309699 1.000000 0.956708
v 2.078674 1.000000 1.388925
v 1.767767 1.000000 1.767767
v 1.388925 1.000000 2.078674
v 0.956708 1.000000 2.309699
v 0.487725 1.000000 2.451963
v -0.000001 1.000000 2.500000
v -0.487727 1.000000 2.451963
v -0.956710 1.000000 2.309699
v -1.388927 1.000000 2.078673
v -1.767768 1.000000 1.767766
v -2.078675 1.000000 1.388924
v -2.309700 1.000000 0.956707
v -2.451964 1.000000 0.487724
v -2.500000 1.000000 -0.000002
v -2.451963 1.000000 -0.487728
v -2.309698 1.000000 -0.956711
v -2.078672 1.000000 -1.388928
v -1.767765 1.000000 -1.767769
v -1.388923 1.000000 -2.078676
v -0.956705 1.000000 -2.309700
v -0.487722 1.000000 -2.451964
v 0.000000 3.000000 0.000000
v 0.000000 1.000000 0.000000
vt 0.476956 0.461237
vt 0.466006 0.472187
vt 0.415892 0.411124
vt 0.485559 0.448362
vt 0.491485 0.434055
vt 0.494506 0.418867
vt 0.494506 0.403381
vt 0.491485 0.388193
vt 0.485559 0.373886
vt 0.476956 0.361011
vt 0.466006 0.350061
vt 0.453130 0.341457
vt 0.438823 0.335531
vt 0.423635 0.332510
vt 0.408150 0.332510
vt 0.392962 0.335531
vt 0.378655 0.341457
vt 0.365779 0.350060
vt 0.354829 0.361010
vt 0.346226 0.373886
vt 0.340299 0.388193
vt 0.337278 0.403381
vt 0.337278 0.418867
vt 0.340299 0.434055
vt 0.346226 0.448361
vt 0.354829 0.461237
vt 0.365779 0.472187
vt 0.378655 0.480790
vt 0.392961 0.486717
vt 0.408149 0.489738
vt 0.423635 0.489738
vt 0.438823 0.486717
vt 0.453130 0.480791
vt 0.852402 0.849090
vt 0.963234 0.838174
vt 0.963234 0.860006
vt 0.876979 0.369444
vt 0.986208 0.347717
vt 0.988348 0.369444
vt 0.035694 0.984255
vt 0.144923 0.962528
vt 0.147063 0.984255
vt 0.036230 0.951612
vt 0.147063 0.940696
vt 0.147063 0.962528
vt 0.876979 0.021727
vt 0.986208 0.000000
vt 0.988348 0.021727
vt 0.035694 0.918968
vt 0.144923 0.897241
vt 0.147063 0.918968
vt 0.876979 0.304263
vt 0.986208 0.282536
vt 0.988348 0.304263
vt 0.876979 0.347717
vt 0.986208 0.325990
vt 0.988348 0.347717
vt 0.880460 0.732020
vt 0.991293 0.721104
vt 0.991293 0.742936
vt 0.876979 0.043454
vt 0.986208 0.021727
vt 0.988348 0.043454
vt 0.876979 0.260703
vt 0.986208 0.238976
vt 0.988348 0.260703
vt 0.880460 0.637898
vt 0.989689 0.616171
vt 0.991829 0.637898
vt 0.988348 0.176656
vt 0.879119 0.198383
vt 0.876979 0.176656
vt 0.991829 0.742936
vt 0.882600 0.764663
vt 0.880460 0.742936
vt 0.991293 0.670646
vt 0.880460 0.681562
vt 0.880460 0.659730
vt 0.987812 0.054370
vt 0.876979 0.065286
vt 0.987812 0.271619
vt 0.876979 0.282536
vt 0.999089 0.485634
vt 0.889859 0.507361
vt 0.887720 0.485634
vt 0.988348 0.198383
vt 0.879119 0.220110
vt 0.876979 0.198383
vt 0.898706 0.176656
vt 0.876979 0.067426
vt 0.898706 0.065286
vt 0.037834 0.940696
vt 0.991293 0.710188
vt 0.880460 0.721104
vt 0.880460 0.699272
vt 0.998553 0.532831
vt 0.887720 0.543748
vt 0.887720 0.521915
vt 0.618905 0.427523
vt 0.509676 0.449250
vt 0.507536 0.427523
vt 0.988348 0.325990
vt 0.876979 0.325990
vt 0.879119 0.304263
vt 0.991293 0.648814
vt 0.767397 0.369444
vt 0.658168 0.391171
vt 0.656028 0.369444
vt 0.147063 0.875514
vt 0.037834 0.897241
vt 0.035694 0.875514
vt 0.852402 0.823689
vt 0.961631 0.801962
vt 0.963771 0.823689
vt 0.878766 0.391171
vt 0.987996 0.369444
vt 0.990136 0.391171
vt 0.767397 0.391171
vt 0.876626 0.369444
vt 0.997843 0.558232
vt 0.999983 0.579959
vt 0.888613 0.579959
vt 0.199221 0.202154
vt 0.190355 0.228041
vt 0.185490 0.226022
vt 0.181065 0.223056
vt 0.177269 0.219244
vt 0.174266 0.214724
vt 0.172187 0.209664
vt 0.171129 0.204253
vt 0.171148 0.198698
vt 0.172259 0.193209
vt 0.174437 0.187999
vt 0.177617 0.183268
vt 0.181700 0.179202
vt 0.186688 0.176307
vt 0.192097 0.174453
vt 0.197723 0.173691
vt 0.203355 0.174037
vt 0.208786 0.175465
vt 0.213815 0.177912
vt 0.218254 0.181281
vt 0.221941 0.185438
vt 0.224739 0.190220
vt 0.226546 0.195444
vt 0.227297 0.200907
vt 0.226967 0.206398
vt 0.225575 0.211706
vt 0.223179 0.216625
vt 0.219878 0.220967
vt 0.215807 0.224566
vt 0.211130 0.227287
vt 0.206038 0.229032
vt 0.200736 0.229740
vt 0.195438 0.229400
vt 0.136124 0.389030
vt 0.100979 0.371416
vt 0.070413 0.347456
vt 0.045490 0.318269
vt 0.027022 0.285132
vt 0.015545 0.249428
vt 0.011313 0.212591
vt 0.014294 0.176049
vt 0.024185 0.141174
vt 0.040429 0.109226
vt 0.062251 0.081310
vt 0.088608 0.058397
vt 0.117772 0.039402
vt 0.150325 0.026181
vt 0.185027 0.019391
vt 0.220607 0.019391
vt 0.255731 0.026284
vt 0.289060 0.039910
vt 0.319296 0.059842
vt 0.345241 0.085404
vt 0.365842 0.115688
vt 0.380237 0.149591
vt 0.387792 0.185853
vt 0.388125 0.223099
vt 0.381131 0.259899
vt 0.366985 0.294817
vt 0.346145 0.326465
vt 0.319333 0.353559
vt 0.287517 0.374973
vt 0.251879 0.389778
vt 0.213770 0.397286
vt 0.174669 0.397078
vt 0.262564 0.749516
vt 0.241980 0.770100
vt 0.147778 0.655313
vt 0.278736 0.725312
vt 0.289876 0.698418
vt 0.295555 0.669868
vt 0.295555 0.640759
vt 0.289876 0.612208
vt 0.278736 0.585315
vt 0.262564 0.561111
vt 0.241980 0.540527
vt 0.217777 0.524355
vt 0.190883 0.513215
vt 0.162333 0.507536
vt 0.133223 0.507535
vt 0.104673 0.513214
vt 0.077779 0.524354
vt 0.053575 0.540526
vt 0.032991 0.561110
vt 0.016819 0.585314
vt 0.005679 0.612208
vt 0.000000 0.640758
vt 0.000000 0.669868
vt 0.005679 0.698418
vt 0.016819 0.725312
vt 0.032991 0.749515
vt 0.053575 0.770099
vt 0.077779 0.786272
vt 0.104672 0.797412
vt 0.133223 0.803091
vt 0.162332 0.803091
vt 0.190882 0.797412
vt 0.217776 0.786272
vt 0.666786 0.947019
vt 0.814563 0.932464
vt 0.814563 0.961574
vt 0.814563 0.975989
vt 0.962341 0.961434
vt 0.962341 0.990543
vt 0.666786 0.976129
vt 0.814563 0.990683
vt 0.519009 0.971397
vt 0.666786 0.956843
vt 0.666786 0.985952
vt 0.814563 0.917910
vt 0.962341 0.903355
vt 0.962341 0.932464
vt 0.147063 0.933453
vt 0.292702 0.904484
vt 0.295555 0.933453
vt 0.333393 0.971783
vt 0.481171 0.957228
vt 0.481171 0.986338
vt 0.333393 0.913704
vt 0.481171 0.899149
vt 0.481171 0.928259
vt 0.519009 0.942288
vt 0.666786 0.927733
vt 0.518294 0.927733
vt 0.663933 0.898764
vt 0.332678 0.957228
vt 0.478317 0.928259
vt 0.702998 0.707496
vt 0.848637 0.678526
vt 0.851490 0.707496
vt 0.850775 0.751020
vt 0.702998 0.765575
vt 0.702998 0.736465
vt 0.481171 0.870180
vt 0.335532 0.899149
vt 0.332678 0.870180
vt 0.295555 0.875514
vt 0.149916 0.904484
vt 0.666786 0.884209
vt 0.519009 0.898764
vt 0.519009 0.869654
vt 0.656028 0.478566
vt 0.510389 0.507535
vt 0.507536 0.478566
vt 0.655313 0.412968
vt 0.507536 0.398413
vt 0.666786 0.932464
vt 0.666786 0.903355
vt 0.880460 0.764663
vt 0.851490 0.619024
vt 0.880460 0.616171
vt 0.656028 0.449597
vt 0.510389 0.478566
vt 0.507536 0.449597
vt 0.705851 0.736465
vt 0.815278 0.903355
vt 0.669639 0.874385
vt 0.510389 0.398413
vt 0.507536 0.369444
vt 0.851490 0.645140
vt 0.702998 0.645140
vt 0.705851 0.616171
vt 0.629663 0.543923
vt 0.484024 0.572892
vt 0.481171 0.543923
vt 0.295555 0.962422
vt 0.149916 0.991392
vt 0.147063 0.962422
vt 0.963056 0.932464
vt 0.817417 0.961434
vt 0.292702 0.933453
vt 0.960918 0.874385
vt 0.963771 0.903355
vt 0.702998 0.674110
vt 0.848637 0.645140
vt 0.851490 0.674110
vt 0.997147 0.765575
vt 1.000000 0.794544
vt 0.851508 0.794544
vt 0.746139 0.362345
vt 0.710451 0.369444
vt 0.692257 0.184722
vt 0.779756 0.348420
vt 0.810011 0.328205
vt 0.835740 0.302475
vt 0.855956 0.272220
vt 0.869880 0.238603
vt 0.876979 0.202915
vt 0.876979 0.166528
vt 0.869880 0.130841
vt 0.855956 0.097223
vt 0.835740 0.066969
vt 0.810011 0.041239
vt 0.779756 0.021024
vt 0.746139 0.007099
vt 0.710451 0.000000
vt 0.674064 0.000000
vt 0.638376 0.007099
vt 0.604759 0.021023
vt 0.574504 0.041239
vt 0.548774 0.066969
vt 0.528559 0.097223
vt 0.514634 0.130840
vt 0.507536 0.166528
vt 0.507536 0.202915
vt 0.514634 0.238603
vt 0.528559 0.272220
vt 0.548774 0.302475
vt 0.574504 0.328205
vt 0.604759 0.348420
vt 0.638376 0.362345
vt 0.674064 0.369444
vt 0.702998 0.430556
vt 0.885047 0.394344
vt 0.888613 0.430556
vt 0.295555 0.870180
vt 0.477604 0.833968
vt 0.296449 0.670577
vt 0.481171 0.652383
vt 0.481171 0.688770
vt 0.666786 0.394344
vt 0.702998 0.576393
vt 0.666786 0.579959
vt 0.296449 0.706964
vt 0.481171 0.725157
vt 0.481171 0.761019
vt 0.663220 0.724807
vt 0.666786 0.761019
vt 0.702998 0.579959
vt 0.885047 0.543748
vt 0.702998 0.525554
vt 0.887720 0.507361
vt 0.702998 0.489167
vt 0.887720 0.470974
vt 0.109940 0.875514
vt 0.291989 0.839302
vt 0.666786 0.838174
vt 0.848835 0.801962
vt 0.852402 0.838174
vt 0.296449 0.815775
vt 0.481171 0.797581
vt 0.481171 0.833968
vt 0.484737 0.797231
vt 0.851508 0.783768
vt 0.666786 0.801962
vt 0.666786 0.765575
vt 0.706564 0.466767
vt 0.852402 0.874385
vt 0.666786 0.874385
vt 0.670353 0.838174
vt 0.666786 0.688595
vt 0.484737 0.724807
vt 0.481171 0.688595
vt 0.481171 0.616171
vt 0.299122 0.652383
vt 0.295555 0.616171
vt 0.665892 0.525729
vt 0.481171 0.507535
vt 0.666786 0.583526
vt 0.666786 0.652383
vt 0.484737 0.688595
vt 0.666786 0.616171
vt 0.484737 0.652383
vt 0.295555 0.803091
vt 0.113506 0.839302
vt 0.109940 0.803091
vt 0.299122 0.543747
vt 0.295555 0.507536
vt 0.666786 0.833442
vt 0.481171 0.833442
vt 0.481171 0.579959
vt 0.299122 0.616171
vt 0.295555 0.579960
vt 0.481171 0.761369
vt 0.299122 0.797581
vt 0.295555 0.761369
vt 0.299122 0.761369
vt 0.295555 0.725157
vt 0.481171 0.869654
vt 0.663220 0.833442
vt 0.666786 0.869654
vt 0.663219 0.579959
vt 0.295555 0.579959
vt 0.477604 0.543747
vt 0.885047 0.579959
vt 0.888613 0.616171
vt 0.702998 0.616171
vt 0.000000 0.000000
vt 1.000000 0.000000
vt 1.000000 1.000000
vn 0.176458 -0.426283 -0.887204
vn 0.000000 -0.426283 -0.904569
vn 0.000000 1.000000 0.000000
vn 0.346141 -0.426283 -0.835719
vn 0.502548 -0.426283 -0.752129
vn 0.639637 -0.426283 -0.639637
vn 0.752129 -0.426283 -0.502548
vn 0.835719 -0.426283 -0.346141
vn 0.887204 -0.426283 -0.176458
vn 0.904569 -0.426283 0.000000
vn 0.887204 -0.426283 0.176458
vn 0.835719 -0.426283 0.346141
vn 0.752129 -0.426283 0.502548
vn 0.639637 -0.426283 0.639637
vn 0.502548 -0.426283 0.752129
vn 0.346141 -0.426283 0.835719
vn 0.176458 -0.426283 0.887204
vn 0.000000 -0.426283 0.904569
vn -0.176458 -0.426283 0.887204
vn -0.346141 -0.426283 0.835719
vn -0.502548 -0.426283 0.752129
vn -0.639637 -0.426283 0.639637
vn -0.752129 -0.426283 0.502548
vn -0.835719 -0.426283 0.346141
vn -0.887204 -0.426283 0.176458
vn -0.904569 -0.426283 0.000000
vn -0.887204 -0.426283 -0.176458
vn -0.835719 -0.426283 -0.346141
vn -0.752129 -0.426283 -0.502548
vn -0.639637 -0.426283 -0.639637
vn -0.502548 -0.426283 -0.752129
vn -0.346141 -0.426283 -0.835719
vn -0.176458 -0.426283 -0.887204
vn 0.000000 -1.000000 0.000000
vn 0.000000 -0.685690 -0.727866
vn 0.142003 -0.685690 -0.713889
vn 0.278542 -0.685690 -0.672475
vn 0.404370 -0.685690 -0.605213
vn 0.514695 -0.685690 -0.514664
vn 0.605213 -0.685690 -0.404370
vn 0.672475 -0.685690 -0.278542
vn 0.713889 -0.685690 -0.142003
vn 0.727866 -0.685690 0.000000
vn 0.713889 -0.685690 0.142003
vn 0.672475 -0.685690 0.278542
vn 0.605213 -0.685690 0.404370
vn 0.514664 -0.685690 0.514664
vn 0.404370 -0.685690 0.605213
vn 0.278542 -0.685690 0.672475
vn 0.142003 -0.685690 0.713889
vn 0.000000 -0.685690 0.727866
vn -0.142003 -0.685690 0.713889
vn -0.278542 -0.685690 0.672475
vn -0.404370 -0.685690 0.605213
vn -0.514664 -0.685690 0.514664
vn -0.605213 -0.685690 0.404370
vn -0.672475 -0.685690 0.278542
vn -0.713889 -0.685690 0.142003
vn -0.727866 -0.685690 0.000000
vn -0.713889 -0.685690 -0.142003
vn -0.672475 -0.685690 -0.278542
vn -0.605213 -0.685690 -0.404370
vn -0.514695 -0.685690 -0.514664
vn -0.404370 -0.685690 -0.605213
vn -0.278542 -0.685690 -0.672475
vn -0.142003 -0.685690 -0.713889
vn 0.000000 0.685690 -0.727866
vn 0.142003 0.685690 -0.713889
vn 0.278542 0.685690 -0.672475
vn 0.404370 0.685690 -0.605213
vn 0.514695 0.685690 -0.514664
vn 0.605213 0.685690 -0.404370
vn 0.672475 0.685690 -0.278542
vn 0.713889 0.685690 -0.142003
vn 0.727866 0.685690 0.000000
vn 0.713889 0.685690 0.142003
vn 0.672475 0.685690 0.278542
vn 0.605213 0.685690 0.404370
vn 0.514664 0.685690 0.514664
vn 0.404370 0.685690 0.605213
vn 0.278542 0.685690 0.672475
vn 0.142003 0.685690 0.713889
vn 0.000000 0.685690 0.727866
vn -0.142003 0.685690 0.713889
vn -0.278542 0.685690 0.672475
vn -0.404370 0.685690 0.605213
vn -0.514664 0.685690 0.514695
vn -0.605213 0.685690 0.404370
vn -0.672475 0.685690 0.278542
vn -0.713889 0.685690 0.142003
vn -0.727866 0.685690 0.000000
vn -0.713889 0.685690 -0.141972
vn -0.672475 0.685690 -0.278542
vn -0.605213 0.685690 -0.404370
vn -0.514695 0.685690 -0.514664
vn -0.404370 0.685690 -0.605213
vn -0.278542 0.685690 -0.672475
vn -0.142003 0.685690 -0.713889
vn 0.181707 -0.363689 -0.913602
vn 0.000000 -0.363689 -0.931516
vn 0.356456 -0.363689 -0.860591
vn 0.517502 -0.363689 -0.774499
vn 0.658681 -0.363689 -0.658681
vn 0.774499 -0.363689 -0.517502
vn 0.860591 -0.363689 -0.356456
vn 0.913602 -0.363689 -0.181707
vn 0.931516 -0.363689 0.000000
vn 0.913602 -0.363689 0.181707
vn 0.860591 -0.363689 0.356456
vn 0.774499 -0.363689 0.517502
vn 0.658681 -0.363689 0.658681
vn 0.517502 -0.363689 0.774499
vn 0.356456 -0.363689 0.860591
vn 0.181707 -0.363689 0.913602
vn 0.000000 -0.363689 0.931516
vn -0.181707 -0.363689 0.913602
vn -0.356456 -0.363689 0.860591
vn -0.517502 -0.363689 0.774499
vn -0.658681 -0.363689 0.658681
vn -0.774499 -0.363689 0.517502
vn -0.860591 -0.363689 0.356456
vn -0.913602 -0.363689 0.181707
vn -0.931516 -0.363689 0.000000
vn -0.913602 -0.363689 -0.181707
vn -0.860591 -0.363689 -0.356456
vn -0.774499 -0.363689 -0.517502
vn -0.658681 -0.363689 -0.658681
vn -0.517502 -0.363689 -0.774499
vn -0.356456 -0.363689 -0.860591
vn -0.181707 -0.363689 -0.913602
vn 0.000000 -0.999969 0.000000
vn 0.185217 -0.313944 -0.931181
vn 0.000000 -0.313944 -0.949431
vn 0.363323 -0.313944 -0.877163
vn 0.527451 -0.313944 -0.789422
vn 0.671346 -0.313944 -0.671346
vn 0.789422 -0.313944 -0.527451
vn 0.877163 -0.313944 -0.363323
vn 0.931181 -0.313944 -0.185217
vn 0.949431 -0.313944 0.000000
vn 0.931181 -0.313944 0.185217
vn 0.877163 -0.313944 0.363323
vn 0.789422 -0.313944 0.527451
vn 0.671346 -0.313944 0.671346
vn 0.527451 -0.313944 0.789422
vn 0.363323 -0.313944 0.877163
vn 0.185217 -0.313944 0.931181
vn 0.000000 -0.313944 0.949431
vn -0.185217 -0.313944 0.931181
vn -0.363323 -0.313944 0.877163
vn -0.527451 -0.313944 0.789422
vn -0.671346 -0.313944 0.671346
vn -0.789422 -0.313944 0.527451
vn -0.877163 -0.313944 0.363323
vn -0.931181 -0.313944 0.185217
vn -0.949431 -0.313944 0.000000
vn -0.931181 -0.313944 -0.185217
vn -0.877163 -0.313944 -0.363323
vn -0.789422 -0.313944 -0.527482
vn -0.671346 -0.313944 -0.671346
vn -0.527451 -0.313944 -0.789422
vn -0.363323 -0.313944 -0.877163
vn -0.185217 -0.313944 -0.931181
usemtl _texture.tga.002
s 1
f 2/1/1 1/2/2 33/3/3
f 33/3/3 3/4/4 2/1/1
f 33/3/3 4/5/5 3/4/4
f 33/3/3 5/6/6 4/5/5
f 33/3/3 6/7/7 5/6/6
f 33/3/3 7/8/8 6/7/7
f 33/3/3 8/9/9 7/8/8
f 33/3/3 9/10/10 8/9/9
f 33/3/3 10/11/11 9/10/10
f 33/3/3 11/12/12 10/11/11
f 33/3/3 12/13/13 11/12/12
f 33/3/3 13/14/14 12/13/13
f 33/3/3 14/15/15 13/14/14
f 33/3/3 15/16/16 14/15/15
f 33/3/3 16/17/17 15/16/16
f 33/3/3 17/18/18 16/17/17
f 33/3/3 18/19/19 17/18/18
f 33/3/3 19/20/20 18/19/19
f 33/3/3 20/21/21 19/20/20
f 33/3/3 21/22/22 20/21/21
f 33/3/3 22/23/23 21/22/22
f 33/3/3 23/24/24 22/23/23
f 33/3/3 24/25/25 23/24/24
f 33/3/3 25/26/26 24/25/25
f 33/3/3 26/27/27 25/26/26
f 33/3/3 27/28/28 26/27/27
f 33/3/3 28/29/29 27/28/28
f 33/3/3 29/30/30 28/29/29
f 33/3/3 30/31/31 29/30/30
f 33/3/3 31/32/32 30/31/31
f 33/3/3 32/33/33 31/32/32
f 33/3/3 1/2/2 32/33/33
f 34/34/34 1/35/2 2/36/1
f 34/37/34 2/38/1 3/39/4
f 34/40/34 3/41/4 4/42/5
f 34/43/34 4/44/5 5/45/6
f 34/46/34 5/47/6 6/48/7
f 34/49/34 6/50/7 7/51/8
f 34/52/34 7/53/8 8/54/9
f 34/55/34 8/56/9 9/57/10
f 34/58/34 9/59/10 10/60/11
f 34/61/34 10/62/11 11/63/12
f 34/64/34 11/65/12 12/66/13
f 34/67/34 12/68/13 13/69/14
f 34/70/34 13/71/14 14/72/15
f 34/73/34 14/74/15 15/75/16
f 34/76/34 15/77/16 16/78/17
f 34/79/34 16/80/17 17/61/18
f 34/81/34 17/82/18 18/64/19
f 34/83/34 18/84/19 19/85/20
f 34/86/34 19/87/20 20/88/21
f 34/89/34 20/90/21 21/91/22
f 34/51/34 21/92/22 22/49/23
f 34/93/34 22/94/23 23/95/24
f 34/96/34 23/97/24 24/98/25
f 34/99/34 24/100/25 25/101/26
f 34/102/34 25/103/26 26/104/27
f 34/105/34 26/78/27 27/67/28
f 34/106/34 27/107/28 28/108/29
f 34/109/34 28/110/29 29/111/30
f 34/112/34 29/113/30 30/114/31
f 34/115/34 30/116/31 31/117/32
f 34/118/34 31/119/32 32/115/33
f 32/120/33 1/121/2 34/122/34
f 99/123/34 35/124/35 36/125/36
f 99/123/34 36/125/36 37/126/37
f 99/123/34 37/126/37 38/127/38
f 99/123/34 38/127/38 39/128/39
f 99/123/34 39/128/39 40/129/40
f 99/123/34 40/129/40 41/130/41
f 99/123/34 41/130/41 42/131/42
f 99/123/34 42/131/42 43/132/43
f 99/123/34 43/132/43 44/133/44
f 99/123/34 44/133/44 45/134/45
f 99/123/34 45/134/45 46/135/46
f 99/123/34 46/135/46 47/136/47
f 99/123/34 47/136/47 48/137/48
f 99/123/34 48/137/48 49/138/49
f 99/123/34 49/138/49 50/139/50
f 99/123/34 50/139/50 51/140/51
f 99/123/34 51/140/51 52/141/52
f 99/123/34 52/141/52 53/142/53
f 99/123/34 53/142/53 54/143/54
f 99/123/34 54/143/54 55/144/55
f 99/123/34 55/144/55 56/145/56
f 99/123/34 56/145/56 57/146/57
f 99/123/34 57/146/57 58/147/58
f 99/123/34 58/147/58 59/148/59
f 99/123/34 59/148/59 60/149/60
f 99/123/34 60/149/60 61/150/61
f 99/123/34 61/150/61 62/151/62
f 99/123/34 62/151/62 63/152/63
f 99/123/34 63/152/63 64/153/64
f 99/123/34 64/153/64 65/154/65
f 99/123/34 65/154/65 66/155/66
f 66/155/66 35/124/35 99/123/34
f 35/124/35 67/156/67 68/157/68
f 35/124/35 68/157/68 36/125/36
f 36/125/36 68/157/68 69/158/69
f 36/125/36 69/158/69 37/126/37
f 37/126/37 69/158/69 70/159/70
f 37/126/37 70/159/70 38/127/38
f 38/127/38 70/159/70 71/160/71
f 38/127/38 71/160/71 39/128/39
f 39/128/39 71/160/71 72/161/72
f 39/128/39 72/161/72 40/129/40
f 40/129/40 72/161/72 73/162/73
f 40/129/40 73/162/73 41/130/41
f 41/130/41 73/162/73 74/163/74
f 41/130/41 74/163/74 42/131/42
f 42/131/42 74/163/74 75/164/75
f 42/131/42 75/164/75 43/132/43
f 43/132/43 75/164/75 76/165/76
f 43/132/43 76/165/76 44/133/44
f 44/133/44 76/165/76 77/166/77
f 44/133/44 77/166/77 45/134/45
f 45/134/45 77/166/77 78/167/78
f 45/134/45 78/167/78 46/135/46
f 46/135/46 78/167/78 79/168/79
f 46/135/46 79/168/79 47/136/47
f 47/136/47 79/168/79 80/169/80
f 47/136/47 80/169/80 48/137/48
f 48/137/48 80/169/80 81/170/81
f 48/137/48 81/170/81 49/138/49
f 49/138/49 81/170/81 82/171/82
f 49/138/49 82/171/82 50/139/50
f 50/139/50 82/171/82 83/172/83
f 50/139/50 83/172/83 51/140/51
f 51/140/51 83/172/83 84/173/84
f 51/140/51 84/173/84 52/141/52
f 52/141/52 84/173/84 85/174/85
f 52/141/52 85/174/85 53/142/53
f 53/142/53 85/174/85 86/175/86
f 53/142/53 86/175/86 54/143/54
f 54/143/54 86/175/86 87/176/87
f 54/143/54 87/176/87 55/144/55
f 55/144/55 87/176/87 88/177/88
f 55/144/55 88/177/88 56/145/56
f 56/145/56 88/177/88 89/178/89
f 56/145/56 89/178/89 57/146/57
f 57/146/57 89/178/89 90/179/90
f 57/146/57 90/179/90 58/147/58
f 58/147/58 90/179/90 91/180/91
f 58/147/58 91/180/91 59/148/59
f 59/148/59 91/180/91 92/181/92
f 59/148/59 92/181/92 60/149/60
f 60/149/60 92/181/92 93/182/93
f 60/149/60 93/182/93 61/150/61
f 61/150/61 93/182/93 94/183/94
f 61/150/61 94/183/94 62/151/62
f 62/151/62 94/183/94 95/184/95
f 62/151/62 95/184/95 63/152/63
f 63/152/63 95/184/95 96/185/96
f 63/152/63 96/185/96 64/153/64
f 64/153/64 96/185/96 97/186/97
f 64/153/64 97/186/97 65/154/65
f 65/154/65 97/186/97 98/187/98
f 65/154/65 98/187/98 66/155/66
f 67/156/67 35/124/35 66/155/66
f 67/156/67 66/155/66 98/187/98
f 102/188/99 101/189/100 133/190/3
f 133/190/3 103/191/101 102/188/99
f 133/190/3 104/192/102 103/191/101
f 133/190/3 105/193/103 104/192/102
f 133/190/3 106/194/104 105/193/103
f 133/190/3 107/195/105 106/194/104
f 133/190/3 108/196/106 107/195/105
f 133/190/3 109/197/107 108/196/106
f 133/190/3 110/198/108 109/197/107
f 133/190/3 111/199/109 110/198/108
f 133/190/3 112/200/110 111/199/109
f 133/190/3 113/201/111 112/200/110
f 133/190/3 114/202/112 113/201/111
f 133/190/3 115/203/113 114/202/112
f 133/190/3 116/204/114 115/203/113
f 133/190/3 117/205/115 116/204/114
f 133/190/3 118/206/116 117/205/115
f 133/190/3 119/207/117 118/206/116
f 133/190/3 120/208/118 119/207/117
f 133/190/3 121/209/119 120/208/118
f 133/190/3 122/210/120 121/209/119
f 133/190/3 123/211/121 122/210/120
f 133/190/3 124/212/122 123/211/121
f 133/190/3 125/213/123 124/212/122
f 133/190/3 126/214/124 125/213/123
f 133/190/3 127/215/125 126/214/124
f 133/190/3 128/216/126 127/215/125
f 133/190/3 129/217/127 128/216/126
f 133/190/3 130/218/128 129/217/127
f 133/190/3 131/219/129 130/218/128
f 133/190/3 132/220/130 131/219/129
f 133/190/3 101/189/100 132/220/130
f 134/221/131 101/222/100 102/223/99
f 134/224/131 102/225/99 103/226/101
f 134/227/131 103/223/101 104/228/102
f 134/229/131 104/230/102 105/231/103
f 134/232/131 105/233/103 106/234/104
f 134/235/131 106/236/104 107/237/105
f 134/238/131 107/239/105 108/240/106
f 134/241/131 108/242/106 109/243/107
f 134/244/131 109/245/107 110/230/108
f 134/246/131 110/247/108 111/245/109
f 134/248/131 111/249/109 112/239/110
f 134/250/131 112/251/110 113/252/111
f 134/253/131 113/254/111 114/255/112
f 134/256/131 114/257/112 115/258/113
f 134/259/131 115/260/113 116/109/114
f 134/261/131 116/262/114 117/263/115
f 134/264/131 117/265/115 118/266/116
f 134/267/131 118/101/116 119/268/117
f 134/232/131 119/269/117 120/270/118
f 134/271/131 120/272/118 121/273/119
f 134/274/131 121/275/119 122/276/120
f 134/252/131 122/277/120 123/250/121
f 134/278/131 123/270/121 124/279/122
f 134/108/131 124/280/122 125/281/123
f 134/282/131 125/283/123 126/284/124
f 134/285/131 126/286/124 127/287/125
f 134/288/131 127/289/125 128/290/126
f 134/291/131 128/292/126 129/222/127
f 134/290/131 129/293/127 130/288/128
f 134/278/131 130/294/128 131/295/129
f 134/296/131 131/297/129 132/298/130
f 132/299/130 101/300/100 134/301/131
f 136/302/132 135/303/133 167/304/3
f 167/304/3 137/305/134 136/302/132
f 167/304/3 138/306/135 137/305/134
f 167/304/3 139/307/136 138/306/135
f 167/304/3 140/308/137 139/307/136
f 167/304/3 141/309/138 140/308/137
f 167/304/3 142/310/139 141/309/138
f 167/304/3 143/311/140 142/310/139
f 167/304/3 144/312/141 143/311/140
f 167/304/3 145/313/142 144/312/141
f 167/304/3 146/314/143 145/313/142
f 167/304/3 147/315/144 146/314/143
f 167/304/3 148/316/145 147/315/144
f 167/304/3 149/317/146 148/316/145
f 167/304/3 150/318/147 149/317/146
f 167/304/3 151/319/148 150/318/147
f 167/304/3 152/320/149 151/319/148
f 167/304/3 153/321/150 152/320/149
f 167/304/3 154/322/151 153/321/150
f 167/304/3 155/323/152 154/322/151
f 167/304/3 156/324/153 155/323/152
f 167/304/3 157/325/154 156/324/153
f 167/304/3 158/326/155 157/325/154
f 167/304/3 159/327/156 158/326/155
f 167/304/3 160/328/157 159/327/156
f 167/304/3 161/329/158 160/328/157
f 167/304/3 162/330/159 161/329/158
f 167/304/3 163/331/160 162/330/159
f 167/304/3 164/332/161 163/331/160
f 167/304/3 165/333/162 164/332/161
f 167/304/3 166/334/163 165/333/162
f 167/304/3 135/303/133 166/334/163
f 168/335/34 135/336/133 136/337/132
f 168/338/34 136/339/132 137/256/134
f 168/340/34 137/341/134 138/342/135
f 168/343/34 138/344/135 139/345/136
f 168/346/34 139/342/136 140/347/137
f 168/348/34 140/349/137 141/350/138
f 168/351/34 141/352/138 142/122/139
f 168/353/34 142/354/139 143/97/140
f 168/355/34 143/356/140 144/354/141
f 168/357/34 144/358/141 145/259/142
f 168/359/34 145/360/142 146/361/143
f 168/362/34 146/363/143 147/364/144
f 168/350/34 147/365/144 148/348/145
f 168/366/34 148/367/145 149/368/146
f 168/337/34 149/369/146 150/335/147
f 168/370/34 150/371/147 151/372/148
f 168/373/34 151/374/148 152/375/149
f 168/376/34 152/377/149 153/378/150
f 168/379/34 153/287/150 154/380/151
f 168/254/34 154/381/151 155/351/152
f 168/382/34 155/383/152 156/341/153
f 168/384/34 156/385/153 157/376/154
f 168/386/34 157/387/154 158/388/155
f 168/380/34 158/389/155 159/390/156
f 168/391/34 159/392/156 160/365/157
f 168/393/34 160/394/157 161/395/158
f 168/396/34 161/397/158 162/398/159
f 168/347/34 162/399/159 163/400/160
f 168/401/34 163/402/160 164/403/161
f 168/376/34 164/404/161 165/384/162
f 168/405/34 165/406/162 166/393/163
f 166/407/163 135/408/133 168/409/34
usemtl 
f 100/410/3 68/411/68 67/412/67
f 100/410/3 69/411/69 68/412/68
f 100/410/3 70/411/70 69/412/69
f 100/410/3 71/411/71 70/412/70
f 100/410/3 72/411/72 71/412/71
f 100/410/3 73/411/73 72/412/72
f 100/410/3 74/411/74 73/412/73
f 100/410/3 75/411/75 74/412/74
f 100/410/3 76/411/76 75/412/75
f 100/410/3 77/411/77 76/412/76
f 100/410/3 78/411/78 77/412/77
f 100/410/3 79/411/79 78/412/78
f 100/410/3 80/411/80 79/412/79
f 100/410/3 81/411/81 80/412/80
f 100/410/3 82/411/82 81/412/81
f 100/410/3 83/411/83 82/412/82
f 100/410/3 84/411/84 83/412/83
f 100/410/3 85/411/85 84/412/84
f 100/410/3 86/411/86 85/412/85
f 100/410/3 87/411/87 86/412/86
f 100/410/3 88/411/88 87/412/87
f 100/410/3 89/411/89 88/412/88
f 100/410/3 90/411/90 89/412/89
f 100/410/3 91/411/91 90/412/90
f 100/410/3 92/411/92 91/412/91
f 100/410/3 93/411/93 92/412/92
f 100/410/3 94/411/94 93/412/93
f 100/410/3 95/411/95 94/412/94
f 100/410/3 96/411/96 95/412/95
f 100/410/3 97/411/97 96/412/96
f 100/410/3 98/411/98 97/412/97
f 100/410/3 67/411/67 98/412/98
